Lab 1: Data Science Tools
…
low_flow_threshold <- low_flow_stats %>% 
  group_by(name) %>% 
  filter(Date <= as.Date("2010-12-31")) %>% 
  summarize(threshold = quantile(rolling_mean, probs = 0.1, na.rm = T))

c. Add a logical column below_threshold that is TRUE when the 7-day rolling mean is below the gauge’s 10th percentile threshold.

Code

low_flow_stats_threshold <- low_flow_stats %>% 
  left_join(low_flow_threshold, by = "name")
  
mutate(low_flow_stats_threshold, below_threshold = rolling_mean < threshold)

# A tibble: 109,426 × 8
   site_no  name   state Date        Flow rolling_mean threshold below_threshold
   <chr>    <chr>  <chr> <date>     <dbl>        <dbl>     <dbl> <lgl>          
 1 09085000 Color… CO    1980-01-01   620          NA       430. NA             
 2 09085000 Color… CO    1980-01-02   605          NA       430. NA             
 3 09085000 Color… CO    1980-01-03   582          NA       430. NA             
 4 09085000 Color… CO    1980-01-04   582          NA       430. NA             
 5 09085000 Color… CO    1980-01-05   575          NA       430. NA             
 6 09085000 Color… CO    1980-01-06   590          NA       430. NA             
 7 09085000 Color… CO    1980-01-07   582         591.      430. FALSE          
 8 09085000 Color… CO    1980-01-08   582         585.      430. FALSE          
 9 09085000 Color… CO    1980-01-09   582         582.      430. FALSE          
10 09085000 Color… CO    1980-01-10   590         583.      430. FALSE          
# ℹ 109,416 more rows
…
Use if_else() to set water_year for Oct–Dec months.

b. For each gauge and water year, compute: total annual discharge, peak daily discharge, and number of days below the low-flow threshold.

Code

water_year_data <- water_year_df %>% 
  group_by(name, water_year) %>% 
  summarize(annual_discharge = sum(Flow),
         peak_daily_discharge = max(Flow), 
         low_flow_days = sum(Flow<threshold))  
print(water_year_data)

# A tibble: 308 × 5
# Groups:   name [7]
   name           water_year annual_discharge peak_daily_discharge low_flow_days
   <chr>               <dbl>            <dbl>                <dbl>         <int>
 1 Colorado R at…       1980           432890                 7170             0
 2 Colorado R at…       1981           271835                 4110           104
 3 Colorado R at…       1982           469712                 5500             0
 4 Colorado R at…       1983           603893                11200            14
 5 Colorado R at…       1984           765741                 9510             0
 6 Colorado R at…       1985           644976                 9690             0
 7 Colorado R at…       1986           624342                 7020             0
 8 Colorado R at…       1987           460126                 5720             0
 9 Colorado R at…       1988           314527                 4090             6
10 Colorado R at…       1989           303507                 2920            51
# ℹ 298 more rows
…
